{
  "name": "univariate_logistic",
  "features": [
    "PUTAMEN"
  ],
  "loss": "MSE",
  "parameters": {
    "g": [
      -0.7901085019111633
    ],
    "tau_mean": 64.18125915527344,
    "tau_std": 10.199116706848145,
    "xi_mean": -2.346343994140625,
    "xi_std": 0.5663877129554749,
    "noise_std": 0.021229960024356842
  }
}